{
  "fetched_at": "2026-06-02T14:50:56.509Z",
  "url": "https://api.mospi.gov.in/api/wpi/getWpiRecords",
  "status_code": 200,
  "content_hash": "f06cf16936180bf256d31b9d80e071e6103cb23c86519e7c3c8277c813bd9688",
  "body_size_bytes": 3875
}

{"data":[{"year":2026,"month":"April","majorgroup":"Wholesale price index","group":null,"subgroup":null,"sub_subgroup":null,"item":null,"index_value":"167"},{"year":2026,"month":"April","majorgroup":"Primary articles","group":"Food articles","subgroup":"Food grains (cereals+pulses)","sub_subgroup":"Cereals","item":"Paddy","index_value":"202"},{"year":2026,"month":"April","majorgroup":"Primary articles","group":"Food articles","subgroup":"Food grains (cereals+pulses)","sub_subgroup":"Cereals","item":"Wheat","index_value":"212.4"},{"year":2026,"month":"April","majorgroup":"Primary articles","group":"Food articles","subgroup":"Food grains (cereals+pulses)","sub_subgroup":"Cereals","item":"Jowar","index_value":"223.3"},{"year":2026,"month":"April","majorgroup":"Primary articles","group":"Food articles","subgroup":"Food grains (cereals+pulses)","sub_subgroup":"Cereals","item":"Bajra","index_value":"243.4"},{"year":2026,"month":"April","majorgroup":"Primary articles","group":"Food articles","subgroup":"Food grains (cereals+pulses)","sub_subgroup":"Cereals","item":"Maize","index_value":"182.1"},{"year":2026,"month":"April","majorgroup":"Primary articles","group":"Food articles","subgroup":"Food grains (cereals+pulses)","sub_subgroup":"Cereals","item":"Barley","index_value":"226"},{"year":2026,"month":"April","majorgroup":"Primary articles","group":"Food articles","subgroup":"Food grains (cereals+pulses)","sub_subgroup":"Cereals","item":"Ragi","index_value":"330.2"},{"year":2026,"month":"April","majorgroup":"Primary articles","group":"Food articles","subgroup":"Food grains (cereals+pulses)","sub_subgroup":"Cereals","item":null,"index_value":"206.6"},{"year":2026,"month":"April","majorgroup":"Primary articles","group":"Food articles","subgroup":"Food grains (cereals+pulses)","sub_subgroup":"Pulses","item":"Gram","index_value":"187.9"},{"year":2026,"month":"April","majorgroup":"Primary articles","group":"Food articles","subgroup":"Food grains (cereals+pulses)","sub_subgroup":"Pulses","item":"Arhar","index_value":"212"},{"year":2026,"month":"April","majorgroup":"Primary articles","group":"Food articles","subgroup":"Food grains (cereals+pulses)","sub_subgroup":"Pulses","item":"Moong","index_value":"188.6"},{"year":2026,"month":"April","majorgroup":"Primary articles","group":"Food articles","subgroup":"Food grains (cereals+pulses)","sub_subgroup":"Pulses","item":"Masur","index_value":"194.2"},{"year":2026,"month":"April","majorgroup":"Primary articles","group":"Food articles","subgroup":"Food grains (cereals+pulses)","sub_subgroup":"Pulses","item":"Urad","index_value":"200.5"},{"year":2026,"month":"April","majorgroup":"Primary articles","group":"Food articles","subgroup":"Food grains (cereals+pulses)","sub_subgroup":"Pulses","item":"Peas/chawali","index_value":"183.7"},{"year":2026,"month":"April","majorgroup":"Primary articles","group":"Food articles","subgroup":"Food grains (cereals+pulses)","sub_subgroup":"Pulses","item":"Rajma","index_value":"232.6"},{"year":2026,"month":"April","majorgroup":"Primary articles","group":"Food articles","subgroup":"Food grains (cereals+pulses)","sub_subgroup":"Pulses","item":null,"index_value":"195.4"},{"year":2026,"month":"April","majorgroup":"Primary articles","group":"Food articles","subgroup":"Food grains (cereals+pulses)","sub_subgroup":null,"item":null,"index_value":"204.6"},{"year":2026,"month":"April","majorgroup":"Primary articles","group":"Food articles","subgroup":"Fruits & vegetables","sub_subgroup":"Vegetables","item":"Potato","index_value":"143.7"},{"year":2026,"month":"April","majorgroup":"Primary articles","group":"Food articles","subgroup":"Fruits & vegetables","sub_subgroup":"Vegetables","item":"Sweet potato","index_value":"126.7"}],"meta_data":{"page":1,"totalRecords":146861,"totalPages":7344,"recordPerPage":20},"msg":"Data fetched successfully","statusCode":true}