{
  "fetched_at": "2026-06-02T14:51:02.200Z",
  "url": "https://api.mospi.gov.in/api/asuse/getAsuseRecords",
  "status_code": 200,
  "content_hash": "ff34c2c4473061e2bffaafdefe1ea947cc7ec6fbf62e8a13d0fec782294dd278",
  "body_size_bytes": 3201
}

{"data":[{"indicator":"Estimated Number of Establishments Pursuing Mixed Activities for Each Activity Category","frequency":"Annually","year":"2021-22","state/UT":"All India","sector":"Rural","activity_category":"Cotton Ginning, Cleaning and Bailing","establishment_type":"Hired Worker Establishments(HWE)","value":"774"},{"indicator":"Estimated Number of Establishments Pursuing Mixed Activities for Each Activity Category","frequency":"Annually","year":"2021-22","state/UT":"All India","sector":"Rural","activity_category":"Cotton Ginning, Cleaning and Bailing","establishment_type":"Own Account Establishments(OAE)","value":"1422"},{"indicator":"Estimated Number of Establishments Pursuing Mixed Activities for Each Activity Category","frequency":"Annually","year":"2021-22","state/UT":"All India","sector":"Rural","activity_category":"Cotton Ginning, Cleaning and Bailing","establishment_type":"All Establishments(All)","value":"2195"},{"indicator":"Estimated Number of Establishments Pursuing Mixed Activities for Each Activity Category","frequency":"Annually","year":"2021-22","state/UT":"All India","sector":"Rural","activity_category":"Manufacture of Food Products","establishment_type":"Hired Worker Establishments(HWE)","value":"127508"},{"indicator":"Estimated Number of Establishments Pursuing Mixed Activities for Each Activity Category","frequency":"Annually","year":"2021-22","state/UT":"All India","sector":"Rural","activity_category":"Manufacture of Food Products","establishment_type":"Own Account Establishments(OAE)","value":"1116198"},{"indicator":"Estimated Number of Establishments Pursuing Mixed Activities for Each Activity Category","frequency":"Annually","year":"2021-22","state/UT":"All India","sector":"Rural","activity_category":"Manufacture of Food Products","establishment_type":"All Establishments(All)","value":"1243706"},{"indicator":"Estimated Number of Establishments Pursuing Mixed Activities for Each Activity Category","frequency":"Annually","year":"2021-22","state/UT":"All India","sector":"Rural","activity_category":"Manufacture of Beverages","establishment_type":"Hired Worker Establishments(HWE)","value":"7690"},{"indicator":"Estimated Number of Establishments Pursuing Mixed Activities for Each Activity Category","frequency":"Annually","year":"2021-22","state/UT":"All India","sector":"Rural","activity_category":"Manufacture of Beverages","establishment_type":"Own Account Establishments(OAE)","value":"71127"},{"indicator":"Estimated Number of Establishments Pursuing Mixed Activities for Each Activity Category","frequency":"Annually","year":"2021-22","state/UT":"All India","sector":"Rural","activity_category":"Manufacture of Beverages","establishment_type":"All Establishments(All)","value":"78817"},{"indicator":"Estimated Number of Establishments Pursuing Mixed Activities for Each Activity Category","frequency":"Annually","year":"2021-22","state/UT":"All India","sector":"Rural","activity_category":"Manufacture of Tobacco Products","establishment_type":"Hired Worker Establishments(HWE)","value":"6281"}],"meta_data":{"page":1,"totalRecords":"491133","totalPages":49114,"recordPerPage":10},"msg":"Data fetched successfully","statusCode":true}